<?xml version="1.0" encoding="UTF-8"?>
<glyph name="t2u2" format="2">
	<advance width="1236"/>
	<outline>
		<component base="uu_sign_drop" xOffset="734" yOffset="181"/>
		<component base="t2"/>
	</outline>
	<lib>
		<dict>
			<key>org.fontforge.glyphclass</key>
			<string>baseligature</string>
		</dict>
	</lib>
</glyph>
