<?xml version="1.0" encoding="UTF-8"?>
<glyph name="t2xx" format="2">
	<advance width="1201"/>
	<outline>
		<component base="t2"/>
		<component base="xx" xOffset="1190" yOffset="-6"/>
	</outline>
	<lib>
		<dict>
			<key>org.fontforge.glyphclass</key>
			<string>baseligature</string>
		</dict>
	</lib>
</glyph>
