<?xml version="1.0" encoding="UTF-8"?>
<glyph name="th1th1r3" format="2">
	<advance width="3495"/>
	<outline>
		<contour>
			<point x="2322" y="412" type="curve" smooth="yes"/>
			<point x="2322" y="642"/>
			<point x="2425" y="803"/>
			<point x="2576" y="912" type="curve"/>
			<point x="2521" y="931"/>
			<point x="2468" y="940"/>
			<point x="2417" y="940" type="curve" smooth="yes"/>
			<point x="2130" y="940"/>
			<point x="2013" y="736"/>
			<point x="2009" y="430" type="curve" smooth="yes"/>
			<point x="2006" y="22" type="line"/>
			<point x="2006" y="5"/>
			<point x="1990" y="-12"/>
			<point x="1973" y="-12" type="curve" smooth="yes"/>
			<point x="1948" y="-12"/>
			<point x="1936" y="-1"/>
			<point x="1936" y="22" type="curve" smooth="yes"/>
			<point x="1936" y="23" type="line"/>
			<point x="1939" y="433" type="line" smooth="yes"/>
			<point x="1939" y="441"/>
			<point x="1939" y="449"/>
			<point x="1939" y="457" type="curve" smooth="yes"/>
			<point x="1939" y="749"/>
			<point x="1805" y="946"/>
			<point x="1529" y="946" type="curve" smooth="yes"/>
			<point x="1476" y="946"/>
			<point x="1419" y="936"/>
			<point x="1362" y="915" type="curve"/>
			<point x="1512" y="813"/>
			<point x="1633" y="640"/>
			<point x="1633" y="404" type="curve" smooth="yes"/>
			<point x="1633" y="191"/>
			<point x="1507" y="-11"/>
			<point x="1290" y="-11" type="curve" smooth="yes"/>
			<point x="1073" y="-11"/>
			<point x="945" y="188"/>
			<point x="945" y="401" type="curve" smooth="yes"/>
			<point x="945" y="635"/>
			<point x="1058" y="811"/>
			<point x="1209" y="915" type="curve"/>
			<point x="1149" y="937"/>
			<point x="1089" y="947"/>
			<point x="1033" y="947" type="curve" smooth="yes"/>
			<point x="776" y="947"/>
			<point x="564" y="748"/>
			<point x="564" y="478" type="curve" smooth="yes"/>
			<point x="564" y="279"/>
			<point x="687" y="124"/>
			<point x="829" y="55" type="curve" smooth="yes"/>
			<point x="843" y="49"/>
			<point x="849" y="36"/>
			<point x="849" y="23" type="curve" smooth="yes"/>
			<point x="849" y="6"/>
			<point x="838" y="-11"/>
			<point x="818" y="-11" type="curve" smooth="yes"/>
			<point x="810" y="-11"/>
			<point x="804" y="-10"/>
			<point x="799" y="-7" type="curve"/>
			<point x="636" y="73"/>
			<point x="494" y="251"/>
			<point x="494" y="479" type="curve" smooth="yes"/>
			<point x="494" y="790"/>
			<point x="743" y="1017"/>
			<point x="1036" y="1017" type="curve" smooth="yes"/>
			<point x="1116" y="1017"/>
			<point x="1201" y="999"/>
			<point x="1285" y="959" type="curve"/>
			<point x="1363" y="996"/>
			<point x="1441" y="1015"/>
			<point x="1522" y="1015" type="curve" smooth="yes"/>
			<point x="1752" y="1015"/>
			<point x="1912" y="898"/>
			<point x="1975" y="711" type="curve"/>
			<point x="2036" y="881"/>
			<point x="2193" y="1012"/>
			<point x="2424" y="1012" type="curve" smooth="yes"/>
			<point x="2499" y="1012"/>
			<point x="2575" y="994"/>
			<point x="2653" y="957" type="curve"/>
			<point x="2717" y="992"/>
			<point x="2785" y="1011"/>
			<point x="2846" y="1011" type="curve" smooth="yes"/>
			<point x="3190" y="1011"/>
			<point x="3396" y="699"/>
			<point x="3396" y="342" type="curve" smooth="yes"/>
			<point x="3396" y="-174"/>
			<point x="3017" y="-387"/>
			<point x="2494" y="-387" type="curve" smooth="yes"/>
			<point x="2044" y="-390"/>
			<point x="1595" y="-397"/>
			<point x="1145" y="-397" type="curve" smooth="yes"/>
			<point x="549" y="-397"/>
			<point x="100" y="-136"/>
			<point x="100" y="453" type="curve" smooth="yes"/>
			<point x="100" y="676"/>
			<point x="174" y="852"/>
			<point x="314" y="1006" type="curve" smooth="yes"/>
			<point x="321" y="1014"/>
			<point x="330" y="1018"/>
			<point x="340" y="1018" type="curve" smooth="yes"/>
			<point x="360" y="1018"/>
			<point x="375" y="1002"/>
			<point x="375" y="983" type="curve" smooth="yes"/>
			<point x="375" y="974"/>
			<point x="372" y="966"/>
			<point x="366" y="959" type="curve" smooth="yes"/>
			<point x="237" y="817"/>
			<point x="170" y="656"/>
			<point x="170" y="448" type="curve" smooth="yes"/>
			<point x="170" y="-94"/>
			<point x="612" y="-327"/>
			<point x="1158" y="-327" type="curve" smooth="yes"/>
			<point x="1603" y="-324"/>
			<point x="2048" y="-320"/>
			<point x="2493" y="-317" type="curve" smooth="yes"/>
			<point x="2989" y="-314"/>
			<point x="3327" y="-134"/>
			<point x="3327" y="344" type="curve" smooth="yes"/>
			<point x="3327" y="646"/>
			<point x="3156" y="939"/>
			<point x="2856" y="939" type="curve" smooth="yes"/>
			<point x="2815" y="939"/>
			<point x="2768" y="932"/>
			<point x="2731" y="912" type="curve"/>
			<point x="2884" y="806"/>
			<point x="3000" y="637"/>
			<point x="3000" y="400" type="curve" smooth="yes"/>
			<point x="3000" y="188"/>
			<point x="2879" y="-13"/>
			<point x="2663" y="-13" type="curve" smooth="yes"/>
			<point x="2442" y="-13"/>
			<point x="2322" y="193"/>
		</contour>
		<contour>
			<point x="2653" y="878" type="curve"/>
			<point x="2505" y="795"/>
			<point x="2392" y="639"/>
			<point x="2392" y="410" type="curve" smooth="yes"/>
			<point x="2392" y="231"/>
			<point x="2484" y="57"/>
			<point x="2663" y="57" type="curve" smooth="yes"/>
			<point x="2837" y="57"/>
			<point x="2930" y="227"/>
			<point x="2930" y="399" type="curve" smooth="yes"/>
			<point x="2930" y="632"/>
			<point x="2805" y="794"/>
		</contour>
		<contour>
			<point x="1285" y="880" type="curve"/>
			<point x="1137" y="797"/>
			<point x="1013" y="633"/>
			<point x="1013" y="407" type="curve" smooth="yes"/>
			<point x="1013" y="231"/>
			<point x="1110" y="59"/>
			<point x="1290" y="59" type="curve" smooth="yes"/>
			<point x="1465" y="59"/>
			<point x="1562" y="230"/>
			<point x="1562" y="402" type="curve" smooth="yes"/>
			<point x="1562" y="630"/>
			<point x="1434" y="797"/>
		</contour>
	</outline>
	<lib>
		<dict>
			<key>org.fontforge.glyphclass</key>
			<string>baseligature</string>
		</dict>
	</lib>
</glyph>
