<?xml version="1.0" encoding="UTF-8"?>
<glyph name="th1th1" format="2">
	<advance width="3148"/>
	<outline>
		<contour>
			<point x="1571" y="705" type="curve"/>
			<point x="1634" y="879"/>
			<point x="1787" y="1015"/>
			<point x="2018" y="1015" type="curve" smooth="yes"/>
			<point x="2099" y="1015"/>
			<point x="2178" y="995"/>
			<point x="2257" y="955" type="curve"/>
			<point x="2338" y="995"/>
			<point x="2412" y="1015"/>
			<point x="2514" y="1015" type="curve" smooth="yes"/>
			<point x="2819" y="1012"/>
			<point x="3048" y="782"/>
			<point x="3048" y="481" type="curve" smooth="yes"/>
			<point x="3048" y="245"/>
			<point x="2898" y="62"/>
			<point x="2722" y="-12" type="curve" smooth="yes"/>
			<point x="2717" y="-14"/>
			<point x="2713" y="-15"/>
			<point x="2708" y="-15" type="curve" smooth="yes"/>
			<point x="2690" y="-15"/>
			<point x="2673" y="2"/>
			<point x="2673" y="20" type="curve" smooth="yes"/>
			<point x="2673" y="35"/>
			<point x="2684" y="48"/>
			<point x="2695" y="53" type="curve" smooth="yes"/>
			<point x="2848" y="118"/>
			<point x="2978" y="274"/>
			<point x="2978" y="481" type="curve" smooth="yes"/>
			<point x="2978" y="744"/>
			<point x="2776" y="944"/>
			<point x="2510" y="944" type="curve" smooth="yes"/>
			<point x="2449" y="944"/>
			<point x="2388" y="933"/>
			<point x="2331" y="911" type="curve"/>
			<point x="2474" y="811"/>
			<point x="2588" y="630"/>
			<point x="2588" y="397" type="curve" smooth="yes"/>
			<point x="2588" y="183"/>
			<point x="2465" y="-16"/>
			<point x="2251" y="-16" type="curve" smooth="yes"/>
			<point x="2038" y="-16"/>
			<point x="1915" y="180"/>
			<point x="1915" y="390" type="curve" smooth="yes"/>
			<point x="1915" y="623"/>
			<point x="2037" y="811"/>
			<point x="2182" y="912" type="curve"/>
			<point x="2126" y="933"/>
			<point x="2071" y="943"/>
			<point x="2018" y="943" type="curve" smooth="yes"/>
			<point x="1725" y="943"/>
			<point x="1607" y="733"/>
			<point x="1605" y="424" type="curve" smooth="yes"/>
			<point x="1602" y="19" type="line"/>
			<point x="1602" y="0"/>
			<point x="1587" y="-15"/>
			<point x="1567" y="-15" type="curve" smooth="yes"/>
			<point x="1548" y="-15"/>
			<point x="1532" y="1"/>
			<point x="1532" y="20" type="curve" smooth="yes"/>
			<point x="1534" y="427" type="line" smooth="yes"/>
			<point x="1534" y="734"/>
			<point x="1415" y="943"/>
			<point x="1125" y="943" type="curve" smooth="yes"/>
			<point x="1073" y="943"/>
			<point x="1018" y="933"/>
			<point x="962" y="913" type="curve"/>
			<point x="1109" y="815"/>
			<point x="1232" y="635"/>
			<point x="1232" y="399" type="curve" smooth="yes"/>
			<point x="1232" y="184"/>
			<point x="1106" y="-8"/>
			<point x="891" y="-12" type="curve" smooth="yes"/>
			<point x="676" y="-12"/>
			<point x="548" y="186"/>
			<point x="548" y="399" type="curve" smooth="yes"/>
			<point x="548" y="630"/>
			<point x="664" y="816"/>
			<point x="810" y="913" type="curve"/>
			<point x="749" y="935"/>
			<point x="690" y="945"/>
			<point x="634" y="945" type="curve" smooth="yes"/>
			<point x="378" y="945"/>
			<point x="170" y="740"/>
			<point x="170" y="473" type="curve" smooth="yes"/>
			<point x="170" y="276"/>
			<point x="293" y="122"/>
			<point x="434" y="53" type="curve"/>
			<point x="443" y="48"/>
			<point x="454" y="34"/>
			<point x="454" y="21" type="curve" smooth="yes"/>
			<point x="454" y="2"/>
			<point x="438" y="-14"/>
			<point x="419" y="-14" type="curve" smooth="yes"/>
			<point x="414" y="-14"/>
			<point x="409" y="-13"/>
			<point x="404" y="-10" type="curve"/>
			<point x="242" y="71"/>
			<point x="101" y="245"/>
			<point x="101" y="472" type="curve" smooth="yes"/>
			<point x="101" y="779"/>
			<point x="347" y="1015"/>
			<point x="638" y="1015" type="curve" smooth="yes"/>
			<point x="718" y="1015"/>
			<point x="802" y="997"/>
			<point x="886" y="957" type="curve"/>
			<point x="963" y="994"/>
			<point x="1046" y="1013"/>
			<point x="1126" y="1013" type="curve" smooth="yes"/>
			<point x="1353" y="1013"/>
			<point x="1507" y="878"/>
		</contour>
		<contour>
			<point x="886" y="878" type="curve"/>
			<point x="738" y="794"/>
			<point x="618" y="630"/>
			<point x="618" y="404" type="curve" smooth="yes"/>
			<point x="618" y="227"/>
			<point x="713" y="58"/>
			<point x="890" y="58" type="curve" smooth="yes"/>
			<point x="1062" y="58"/>
			<point x="1161" y="223"/>
			<point x="1161" y="394" type="curve" smooth="yes"/>
			<point x="1161" y="622"/>
			<point x="1038" y="793"/>
		</contour>
		<contour>
			<point x="2257" y="876" type="curve"/>
			<point x="2110" y="785"/>
			<point x="1984" y="626"/>
			<point x="1984" y="393" type="curve" smooth="yes"/>
			<point x="1984" y="220"/>
			<point x="2077" y="54"/>
			<point x="2251" y="54" type="curve" smooth="yes"/>
			<point x="2424" y="54"/>
			<point x="2517" y="223"/>
			<point x="2517" y="396" type="curve" smooth="yes"/>
			<point x="2517" y="620"/>
			<point x="2403" y="791"/>
		</contour>
	</outline>
	<lib>
		<dict>
			<key>org.fontforge.glyphclass</key>
			<string>baseligature</string>
		</dict>
	</lib>
</glyph>
