<?xml version="1.0" encoding="UTF-8"?>
<glyph name="xx" format="2">
	<unicode hex="0D4D"/>
	<outline>
		<contour>
			<point x="-273" y="1333" type="curve" smooth="yes"/>
			<point x="-273" y="1369"/>
			<point x="-270" y="1430"/>
			<point x="-230" y="1430" type="curve" smooth="yes"/>
			<point x="-211" y="1430"/>
			<point x="-195" y="1414"/>
			<point x="-195" y="1395" type="curve" smooth="yes"/>
			<point x="-195" y="1373"/>
			<point x="-203" y="1350"/>
			<point x="-203" y="1330" type="curve" smooth="yes"/>
			<point x="-203" y="1211"/>
			<point x="-106" y="1117"/>
			<point x="13" y="1117" type="curve" smooth="yes"/>
			<point x="131" y="1117"/>
			<point x="230" y="1208"/>
			<point x="230" y="1329" type="curve" smooth="yes"/>
			<point x="230" y="1348"/>
			<point x="223" y="1370"/>
			<point x="223" y="1391" type="curve" smooth="yes"/>
			<point x="223" y="1410"/>
			<point x="239" y="1426"/>
			<point x="258" y="1426" type="curve" smooth="yes"/>
			<point x="291" y="1426"/>
			<point x="300" y="1387"/>
			<point x="300" y="1345" type="curve" smooth="yes"/>
			<point x="300" y="1172"/>
			<point x="185" y="1048"/>
			<point x="16" y="1048" type="curve" smooth="yes"/>
			<point x="-146" y="1048"/>
			<point x="-273" y="1168"/>
		</contour>
	</outline>
	<lib>
		<dict>
			<key>org.fontforge.glyphclass</key>
			<string>mark</string>
		</dict>
	</lib>
</glyph>
