<?xml version="1.0" encoding="UTF-8"?>
<glyph name="C" format="2">
	<unicode hex="0043"/>
	<advance width="1430"/>
	<outline>
		<contour>
			<point x="1286" y="531" type="curve" smooth="yes"/>
			<point x="1334" y="531"/>
			<point x="1381" y="486"/>
			<point x="1381" y="439" type="curve" smooth="yes"/>
			<point x="1381" y="421"/>
			<point x="1378" y="405"/>
			<point x="1371" y="391" type="curve" smooth="yes"/>
			<point x="1270" y="170"/>
			<point x="1042" y="-22"/>
			<point x="729" y="-22" type="curve" smooth="yes"/>
			<point x="316" y="-22"/>
			<point x="52" y="319"/>
			<point x="52" y="717" type="curve" smooth="yes"/>
			<point x="52" y="1110"/>
			<point x="321" y="1453"/>
			<point x="726" y="1453" type="curve" smooth="yes"/>
			<point x="1033" y="1453"/>
			<point x="1263" y="1271"/>
			<point x="1368" y="1055" type="curve" smooth="yes"/>
			<point x="1376" y="1040"/>
			<point x="1379" y="1027"/>
			<point x="1379" y="1011" type="curve" smooth="yes"/>
			<point x="1379" y="962"/>
			<point x="1338" y="913"/>
			<point x="1291" y="913" type="curve" smooth="yes"/>
			<point x="1245" y="913"/>
			<point x="1206" y="932"/>
			<point x="1188" y="971" type="curve" smooth="yes"/>
			<point x="1113" y="1125"/>
			<point x="948" y="1253"/>
			<point x="726" y="1253" type="curve" smooth="yes"/>
			<point x="435" y="1253"/>
			<point x="252" y="1005"/>
			<point x="252" y="715" type="curve" smooth="yes"/>
			<point x="252" y="423"/>
			<point x="433" y="179"/>
			<point x="727" y="179" type="curve" smooth="yes"/>
			<point x="946" y="179"/>
			<point x="1118" y="316"/>
			<point x="1189" y="471" type="curve" smooth="yes"/>
			<point x="1206" y="509"/>
			<point x="1242" y="531"/>
		</contour>
	</outline>
	<lib>
		<dict>
			<key>org.fontforge.glyphclass</key>
			<string>baseglyph</string>
		</dict>
	</lib>
</glyph>
