<?xml version="1.0" encoding="UTF-8"?>
<glyph name="ch2u2" format="2">
	<advance width="2952"/>
	<outline>
		<contour>
			<point x="1243" y="482" type="curve" smooth="yes"/>
			<point x="1243" y="818"/>
			<point x="1512" y="1099"/>
			<point x="1849" y="1099" type="curve" smooth="yes"/>
			<point x="2028" y="1099"/>
			<point x="2200" y="1009"/>
			<point x="2303" y="894" type="curve"/>
			<point x="2314" y="894"/>
			<point x="2324" y="895"/>
			<point x="2335" y="895" type="curve" smooth="yes"/>
			<point x="2586" y="895"/>
			<point x="2821" y="780"/>
			<point x="2821" y="524" type="curve" smooth="yes"/>
			<point x="2821" y="454"/>
			<point x="2794" y="384"/>
			<point x="2762" y="337" type="curve"/>
			<point x="2825" y="285"/>
			<point x="2878" y="200"/>
			<point x="2878" y="94" type="curve" smooth="yes"/>
			<point x="2878" y="-173"/>
			<point x="2628" y="-257"/>
			<point x="2370" y="-258" type="curve" smooth="yes"/>
			<point x="473" y="-266" type="line" smooth="yes"/>
			<point x="435" y="-266"/>
			<point x="243" y="-272"/>
			<point x="277" y="-324" type="curve" smooth="yes"/>
			<point x="300" y="-362"/>
			<point x="385" y="-366"/>
			<point x="450" y="-366" type="curve" smooth="yes"/>
			<point x="1171" y="-366"/>
			<point x="2007" y="-356"/>
			<point x="2730" y="-356" type="curve" smooth="yes"/>
			<point x="2785" y="-356"/>
			<point x="2830" y="-401"/>
			<point x="2830" y="-456" type="curve" smooth="yes"/>
			<point x="2830" y="-512"/>
			<point x="2785" y="-556"/>
			<point x="2729" y="-556" type="curve" smooth="yes"/>
			<point x="2007" y="-561"/>
			<point x="1171" y="-567"/>
			<point x="451" y="-567" type="curve" smooth="yes"/>
			<point x="267" y="-567"/>
			<point x="75" y="-510"/>
			<point x="75" y="-318" type="curve" smooth="yes"/>
			<point x="75" y="-119"/>
			<point x="278" y="-65"/>
			<point x="468" y="-65" type="curve" smooth="yes"/>
			<point x="2369" y="-58" type="line" smooth="yes"/>
			<point x="2513" y="-57"/>
			<point x="2678" y="-44"/>
			<point x="2678" y="94" type="curve" smooth="yes"/>
			<point x="2678" y="158"/>
			<point x="2629" y="207"/>
			<point x="2565" y="207" type="curve" smooth="yes"/>
			<point x="2510" y="207"/>
			<point x="2465" y="252"/>
			<point x="2465" y="307" type="curve" smooth="yes"/>
			<point x="2465" y="347"/>
			<point x="2495" y="389"/>
			<point x="2533" y="402" type="curve" smooth="yes"/>
			<point x="2580" y="418"/>
			<point x="2620" y="462"/>
			<point x="2620" y="524" type="curve" smooth="yes"/>
			<point x="2620" y="630"/>
			<point x="2519" y="674"/>
			<point x="2425" y="688" type="curve"/>
			<point x="2447" y="629"/>
			<point x="2463" y="553"/>
			<point x="2463" y="477" type="curve" smooth="yes"/>
			<point x="2463" y="220"/>
			<point x="2288" y="-10"/>
			<point x="2023" y="-10" type="curve" smooth="yes"/>
			<point x="1805" y="-10"/>
			<point x="1627" y="170"/>
			<point x="1627" y="390" type="curve" smooth="yes"/>
			<point x="1627" y="646"/>
			<point x="1828" y="797"/>
			<point x="2029" y="856" type="curve"/>
			<point x="1973" y="884"/>
			<point x="1910" y="899"/>
			<point x="1848" y="899" type="curve" smooth="yes"/>
			<point x="1624" y="899"/>
			<point x="1443" y="707"/>
			<point x="1443" y="482" type="curve" smooth="yes"/>
			<point x="1443" y="363"/>
			<point x="1497" y="241"/>
			<point x="1584" y="161" type="curve" smooth="yes"/>
			<point x="1602" y="145"/>
			<point x="1616" y="112"/>
			<point x="1616" y="88" type="curve" smooth="yes"/>
			<point x="1616" y="33"/>
			<point x="1571" y="-10"/>
			<point x="1516" y="-10" type="curve" smooth="yes"/>
			<point x="179" y="-10" type="line" smooth="yes"/>
			<point x="124" y="-10"/>
			<point x="79" y="38"/>
			<point x="79" y="93" type="curve" smooth="yes"/>
			<point x="79" y="149"/>
			<point x="125" y="193"/>
			<point x="181" y="193" type="curve" smooth="yes"/>
			<point x="716" y="191" type="line" smooth="yes"/>
			<point x="831" y="191"/>
			<point x="927" y="275"/>
			<point x="927" y="407" type="curve" smooth="yes"/>
			<point x="927" y="510"/>
			<point x="850" y="601"/>
			<point x="747" y="601" type="curve" smooth="yes"/>
			<point x="662" y="601"/>
			<point x="591" y="532"/>
			<point x="591" y="441" type="curve" smooth="yes"/>
			<point x="591" y="401"/>
			<point x="613" y="372"/>
			<point x="613" y="334" type="curve" smooth="yes"/>
			<point x="613" y="279"/>
			<point x="568" y="234"/>
			<point x="513" y="234" type="curve" smooth="yes"/>
			<point x="421" y="234"/>
			<point x="390" y="355"/>
			<point x="390" y="442" type="curve" smooth="yes"/>
			<point x="390" y="649"/>
			<point x="554" y="801"/>
			<point x="749" y="801" type="curve" smooth="yes"/>
			<point x="960" y="801"/>
			<point x="1127" y="617"/>
			<point x="1127" y="409" type="curve" smooth="yes"/>
			<point x="1127" y="324"/>
			<point x="1104" y="254"/>
			<point x="1064" y="189" type="curve"/>
			<point x="1315" y="188" type="line"/>
			<point x="1268" y="278"/>
			<point x="1243" y="379"/>
		</contour>
		<contour>
			<point x="1827" y="391" type="curve" smooth="yes"/>
			<point x="1827" y="281"/>
			<point x="1914" y="190"/>
			<point x="2022" y="190" type="curve" smooth="yes"/>
			<point x="2173" y="190"/>
			<point x="2263" y="330"/>
			<point x="2263" y="480" type="curve" smooth="yes"/>
			<point x="2263" y="564"/>
			<point x="2239" y="629"/>
			<point x="2206" y="687" type="curve"/>
			<point x="2030" y="667"/>
			<point x="1827" y="583"/>
		</contour>
	</outline>
	<lib>
		<dict>
			<key>org.fontforge.glyphclass</key>
			<string>baseligature</string>
		</dict>
	</lib>
</glyph>
