<?xml version="1.0" encoding="UTF-8"?>
<glyph name="h1n1" format="2">
	<advance width="2744"/>
	<outline>
		<contour>
			<point x="1835" y="929" type="curve"/>
			<point x="1912" y="1027"/>
			<point x="2045" y="1101"/>
			<point x="2190" y="1101" type="curve" smooth="yes"/>
			<point x="2470" y="1101"/>
			<point x="2670" y="878"/>
			<point x="2670" y="595" type="curve" smooth="yes"/>
			<point x="2670" y="298"/>
			<point x="2429" y="-9"/>
			<point x="2139" y="-9" type="curve" smooth="yes"/>
			<point x="2084" y="-9"/>
			<point x="2039" y="36"/>
			<point x="2039" y="91" type="curve" smooth="yes"/>
			<point x="2039" y="139"/>
			<point x="2077" y="183"/>
			<point x="2124" y="190" type="curve" smooth="yes"/>
			<point x="2310" y="221"/>
			<point x="2470" y="379"/>
			<point x="2470" y="593" type="curve" smooth="yes"/>
			<point x="2470" y="764"/>
			<point x="2356" y="900"/>
			<point x="2193" y="900" type="curve" smooth="yes"/>
			<point x="2046" y="900"/>
			<point x="1937" y="794"/>
			<point x="1937" y="653" type="curve" smooth="yes"/>
			<point x="1938" y="91" type="line"/>
			<point x="1937" y="36"/>
			<point x="1893" y="-8"/>
			<point x="1838" y="-8" type="curve" smooth="yes"/>
			<point x="1784" y="-8"/>
			<point x="1739" y="36"/>
			<point x="1738" y="90" type="curve" smooth="yes"/>
			<point x="1737" y="278"/>
			<point x="1736" y="467"/>
			<point x="1736" y="655" type="curve" smooth="yes"/>
			<point x="1736" y="790"/>
			<point x="1623" y="895"/>
			<point x="1483" y="895" type="curve" smooth="yes"/>
			<point x="1321" y="895"/>
			<point x="1206" y="758"/>
			<point x="1206" y="589" type="curve" smooth="yes"/>
			<point x="1206" y="380"/>
			<point x="1367" y="222"/>
			<point x="1556" y="201" type="curve" smooth="yes"/>
			<point x="1605" y="195"/>
			<point x="1644" y="150"/>
			<point x="1644" y="101" type="curve" smooth="yes"/>
			<point x="1644" y="46"/>
			<point x="1599" y="1"/>
			<point x="1544" y="1" type="curve" smooth="yes"/>
			<point x="580" y="2" type="line" smooth="yes"/>
			<point x="525" y="2"/>
			<point x="480" y="47"/>
			<point x="480" y="102" type="curve" smooth="yes"/>
			<point x="480" y="138"/>
			<point x="506" y="179"/>
			<point x="539" y="194" type="curve" smooth="yes"/>
			<point x="600" y="221"/>
			<point x="652" y="283"/>
			<point x="652" y="367" type="curve" smooth="yes"/>
			<point x="652" y="471"/>
			<point x="571" y="554"/>
			<point x="465" y="554" type="curve" smooth="yes"/>
			<point x="357" y="554"/>
			<point x="275" y="474"/>
			<point x="275" y="367" type="curve" smooth="yes"/>
			<point x="275" y="277"/>
			<point x="332" y="213"/>
			<point x="399" y="189" type="curve" smooth="yes"/>
			<point x="436" y="176"/>
			<point x="467" y="133"/>
			<point x="467" y="94" type="curve" smooth="yes"/>
			<point x="467" y="39"/>
			<point x="422" y="-6"/>
			<point x="367" y="-6" type="curve" smooth="yes"/>
			<point x="357" y="-6"/>
			<point x="340" y="-3"/>
			<point x="331" y="1" type="curve"/>
			<point x="194" y="51"/>
			<point x="75" y="182"/>
			<point x="75" y="366" type="curve" smooth="yes"/>
			<point x="75" y="585"/>
			<point x="243" y="755"/>
			<point x="464" y="755" type="curve" smooth="yes"/>
			<point x="686" y="755"/>
			<point x="852" y="585"/>
			<point x="852" y="366" type="curve" smooth="yes"/>
			<point x="852" y="309"/>
			<point x="839" y="253"/>
			<point x="815" y="202" type="curve"/>
			<point x="1152" y="202" type="line"/>
			<point x="1062" y="306"/>
			<point x="1006" y="428"/>
			<point x="1006" y="591" type="curve" smooth="yes"/>
			<point x="1006" y="871"/>
			<point x="1208" y="1095"/>
			<point x="1485" y="1095" type="curve" smooth="yes"/>
			<point x="1623" y="1095"/>
			<point x="1757" y="1025"/>
		</contour>
	</outline>
	<lib>
		<dict>
			<key>org.fontforge.glyphclass</key>
			<string>baseligature</string>
		</dict>
	</lib>
</glyph>
