<?xml version="1.0" encoding="UTF-8"?>
<glyph name="idieresis" format="2">
	<unicode hex="00EF"/>
	<advance width="392"/>
	<outline>
		<component base="dieresis" xOffset="-86.2655873041" yOffset="88.8142489028"/>
		<component base="dotlessi"/>
	</outline>
</glyph>
