<?xml version="1.0" encoding="UTF-8"?>
<glyph name="nht2" format="2">
	<advance width="2774"/>
	<outline>
		<contour>
			<point x="2300" y="-621" type="curve" smooth="yes"/>
			<point x="2433" y="-621"/>
			<point x="2525" y="-519"/>
			<point x="2525" y="-398" type="curve" smooth="yes"/>
			<point x="2525" y="-293"/>
			<point x="2446" y="-174"/>
			<point x="2305" y="-174" type="curve" smooth="yes"/>
			<point x="2178" y="-174"/>
			<point x="2075" y="-265"/>
			<point x="2075" y="-397" type="curve" smooth="yes"/>
			<point x="2075" y="-526"/>
			<point x="2175" y="-621"/>
		</contour>
		<contour>
			<point x="1906" y="-408" type="curve" smooth="yes"/>
			<point x="1906" y="-181"/>
			<point x="2078" y="-4"/>
			<point x="2302" y="-4" type="curve" smooth="yes"/>
			<point x="2305" y="-4" type="line" smooth="yes"/>
			<point x="2519" y="-4"/>
			<point x="2695" y="-184"/>
			<point x="2695" y="-397" type="curve" smooth="yes"/>
			<point x="2695" y="-616"/>
			<point x="2516" y="-793"/>
			<point x="2297" y="-793" type="curve" smooth="yes"/>
			<point x="2093" y="-793"/>
			<point x="1906" y="-616"/>
		</contour>
		<component base="nh"/>
	</outline>
	<lib>
		<dict>
			<key>org.fontforge.glyphclass</key>
			<string>baseligature</string>
		</dict>
	</lib>
</glyph>
