<?xml version="1.0" encoding="UTF-8"?>
<glyph name="r1" format="2">
	<unicode hex="0D43"/>
	<advance width="393"/>
	<outline>
		<contour>
			<point x="-525" y="-312" type="curve" smooth="yes"/>
			<point x="-525" y="-375"/>
			<point x="-448" y="-408"/>
			<point x="-367" y="-408" type="curve" smooth="yes"/>
			<point x="-276" y="-408"/>
			<point x="-175" y="-365"/>
			<point x="-108" y="-319" type="curve"/>
			<point x="-205" y="-266"/>
			<point x="-296" y="-242"/>
			<point x="-395" y="-242" type="curve" smooth="yes"/>
			<point x="-467" y="-242"/>
			<point x="-525" y="-268"/>
		</contour>
		<contour>
			<point x="19" y="-187" type="curve"/>
			<point x="102" y="-66"/>
			<point x="139" y="178"/>
			<point x="139" y="373" type="curve" smooth="yes"/>
			<point x="139" y="574"/>
			<point x="90" y="773"/>
			<point x="-9" y="968" type="curve" smooth="yes"/>
			<point x="-17" y="983"/>
			<point x="-21" y="999"/>
			<point x="-21" y="1013" type="curve" smooth="yes"/>
			<point x="-21" y="1069"/>
			<point x="33" y="1098"/>
			<point x="77" y="1098" type="curve" smooth="yes"/>
			<point x="110" y="1098"/>
			<point x="136" y="1078"/>
			<point x="151" y="1048" type="curve" smooth="yes"/>
			<point x="263" y="829"/>
			<point x="319" y="605"/>
			<point x="319" y="376" type="curve"/>
			<point x="318" y="-202"/>
			<point x="98" y="-587"/>
			<point x="-365" y="-587" type="curve" smooth="yes"/>
			<point x="-536" y="-587"/>
			<point x="-707" y="-495"/>
			<point x="-707" y="-315" type="curve" smooth="yes"/>
			<point x="-707" y="-146"/>
			<point x="-549" y="-62"/>
			<point x="-394" y="-62" type="curve" smooth="yes"/>
			<point x="-229" y="-62"/>
			<point x="-93" y="-117"/>
		</contour>
	</outline>
	<lib>
		<dict>
			<key>org.fontforge.glyphclass</key>
			<string>baseglyph</string>
		</dict>
	</lib>
</glyph>
