<?xml version="1.0" encoding="UTF-8"?>
<glyph name="th1th1u2" format="2">
	<advance width="3099"/>
	<outline>
		<contour>
			<point x="1975.3330078125" y="1107.181640625" type="curve" smooth="yes"/>
			<point x="2064.775390625" y="1107.181640625"/>
			<point x="2153" y="1081"/>
			<point x="2218" y="1049" type="curve"/>
			<point x="2305" y="1088"/>
			<point x="2399.984375" y="1109"/>
			<point x="2496.076171875" y="1109" type="curve" smooth="yes"/>
			<point x="2741.5541992188" y="1109"/>
			<point x="2992.1357421875" y="957.116394043"/>
			<point x="2992.1357421875" y="689" type="curve" smooth="yes"/>
			<point x="2992.1357421875" y="580.5191040039"/>
			<point x="2950.0764160156" y="502.0764160156"/>
			<point x="2886" y="438" type="curve"/>
			<point x="2941" y="379"/>
			<point x="2987.2060546875" y="286.5673828125"/>
			<point x="2987.2060546875" y="182.28515625" type="curve" smooth="yes"/>
			<point x="2987.2060546875" y="-187.2683563232"/>
			<point x="2598.86328125" y="-270.154296875"/>
			<point x="2234.697265625" y="-270.154296875" type="curve" smooth="yes"/>
			<point x="540.73828125" y="-270.6962890625" type="line" smooth="yes"/>
			<point x="461.2429504395" y="-270.6962890625"/>
			<point x="306.6474609375" y="-271.4312744141"/>
			<point x="306.6474609375" y="-341.6591796875" type="curve" smooth="yes"/>
			<point x="306.6474609375" y="-396.2567443848"/>
			<point x="448.1301574707" y="-397.0146484375"/>
			<point x="512.15625" y="-397.0146484375" type="curve" smooth="yes"/>
			<point x="2924" y="-403" type="line" smooth="yes"/>
			<point x="2979" y="-403"/>
			<point x="3024" y="-448"/>
			<point x="3024" y="-503" type="curve" smooth="yes"/>
			<point x="3024" y="-559.2197875977"/>
			<point x="2978.384765625" y="-603"/>
			<point x="2922" y="-603" type="curve" smooth="yes"/>
			<point x="505.0185546875" y="-597.4970703125" type="line" smooth="yes"/>
			<point x="310.7213745117" y="-597.4970703125"/>
			<point x="106.58984375" y="-543.2887573242"/>
			<point x="106.58984375" y="-340.9140625" type="curve" smooth="yes"/>
			<point x="106.58984375" y="-128.2889404297"/>
			<point x="324.2030334473" y="-70.08203125"/>
			<point x="526.3271484375" y="-70.08203125" type="curve" smooth="yes"/>
			<point x="2210.9345703125" y="-69.955078125" type="line" smooth="yes"/>
			<point x="2455.2946777344" y="-69.955078125"/>
			<point x="2802.57421875" y="-66.099609375"/>
			<point x="2802.57421875" y="171.9013671875" type="curve" smooth="yes"/>
			<point x="2802.57421875" y="244.9482421875"/>
			<point x="2778" y="347"/>
			<point x="2682" y="349" type="curve" smooth="yes"/>
			<point x="2642.1589355469" y="349.8300170898"/>
			<point x="2613" y="404"/>
			<point x="2613" y="444" type="curve" smooth="yes"/>
			<point x="2613" y="488"/>
			<point x="2646.88671875" y="540.2568359375"/>
			<point x="2691" y="542" type="curve" smooth="yes"/>
			<point x="2791.0986328125" y="545.9560546875"/>
			<point x="2794.0703125" y="619.7832641602"/>
			<point x="2792.0703125" y="689" type="curve" smooth="yes"/>
			<point x="2787.80078125" y="836.7644042969"/>
			<point x="2639.9990234375" y="908.99609375"/>
			<point x="2496.650390625" y="908.99609375" type="curve" smooth="yes"/>
			<point x="2467.4140625" y="908.99609375"/>
			<point x="2438" y="906"/>
			<point x="2409" y="901" type="curve"/>
			<point x="2518.2495117188" y="773.9139404297"/>
			<point x="2574.4970703125" y="612.0943603516"/>
			<point x="2574.4970703125" y="429" type="curve" smooth="yes"/>
			<point x="2574.4970703125" y="192.9056243896"/>
			<point x="2436.1975097656" y="-28.6318359375"/>
			<point x="2189" y="-28.6318359375" type="curve" smooth="yes"/>
			<point x="1949.5832519531" y="-28.6318359375"/>
			<point x="1807.4677734375" y="199.1524047852"/>
			<point x="1807.4677734375" y="429" type="curve" smooth="yes"/>
			<point x="1807.4677734375" y="629.2952270508"/>
			<point x="1885.5682373047" y="780.4461669922"/>
			<point x="2009" y="905" type="curve"/>
			<point x="1997" y="906"/>
			<point x="1985.9033203125" y="906.9853515625"/>
			<point x="1974.32421875" y="906.9853515625" type="curve" smooth="yes"/>
			<point x="1733.1229248047" y="906.9853515625"/>
			<point x="1651" y="704.7719726562"/>
			<point x="1651" y="451" type="curve"/>
			<point x="1649" y="71" type="line" smooth="yes"/>
			<point x="1648" y="17"/>
			<point x="1603" y="-27"/>
			<point x="1549" y="-27" type="curve" smooth="yes"/>
			<point x="1494" y="-27"/>
			<point x="1449" y="18"/>
			<point x="1449" y="73" type="curve" smooth="yes"/>
			<point x="1451" y="454" type="line" smooth="yes"/>
			<point x="1451" y="463"/>
			<point x="1451.2265625" y="471.6962890625"/>
			<point x="1451.2265625" y="480.1787109375" type="curve" smooth="yes"/>
			<point x="1451.2265625" y="722.5722045898"/>
			<point x="1359.9921875" y="905.814453125"/>
			<point x="1129.4560546875" y="905.814453125" type="curve" smooth="yes"/>
			<point x="1123.3515625" y="905.814453125"/>
			<point x="1117" y="905"/>
			<point x="1111" y="905" type="curve"/>
			<point x="1229.3682861328" y="780.8294067383"/>
			<point x="1299.9228515625" y="633.7668457031"/>
			<point x="1299.9228515625" y="436" type="curve" smooth="yes"/>
			<point x="1299.9228515625" y="203.6352386475"/>
			<point x="1154.5732421875" y="-24.5048828125"/>
			<point x="913.599609375" y="-24.5048828125" type="curve" smooth="yes"/>
			<point x="666.9301147461" y="-24.5048828125"/>
			<point x="524.2734375" y="199.4415130615"/>
			<point x="524.2734375" y="436" type="curve" smooth="yes"/>
			<point x="524.2734375" y="619.4171142578"/>
			<point x="583.4846191406" y="776.6594238281"/>
			<point x="692" y="901" type="curve"/>
			<point x="680" y="902"/>
			<point x="667.8759765625" y="902.638671875"/>
			<point x="655.869140625" y="902.638671875" type="curve" smooth="yes"/>
			<point x="442.0615234375" y="902.638671875"/>
			<point x="275.095703125" y="733.1650390625"/>
			<point x="275.095703125" y="520" type="curve" smooth="yes"/>
			<point x="275.095703125" y="346.8857421875"/>
			<point x="382" y="219"/>
			<point x="508" y="165" type="curve" smooth="yes"/>
			<point x="542" y="151"/>
			<point x="570" y="110"/>
			<point x="570" y="73" type="curve" smooth="yes"/>
			<point x="570" y="18"/>
			<point x="525" y="-27"/>
			<point x="470" y="-27" type="curve" smooth="yes"/>
			<point x="458" y="-27"/>
			<point x="441" y="-23"/>
			<point x="430" y="-18" type="curve" smooth="yes"/>
			<point x="240" y="63"/>
			<point x="75" y="257.9326171875"/>
			<point x="75" y="520" type="curve" smooth="yes"/>
			<point x="75" y="846.7895507812"/>
			<point x="331.9323730469" y="1102.921875"/>
			<point x="658.7763671875" y="1102.921875" type="curve" smooth="yes"/>
			<point x="740.4931640625" y="1102.921875"/>
			<point x="821" y="1086"/>
			<point x="896" y="1055" type="curve"/>
			<point x="959" y="1084"/>
			<point x="1045.2841796875" y="1106.0126953125"/>
			<point x="1128.2294921875" y="1106.0126953125" type="curve" smooth="yes"/>
			<point x="1320.3953857422" y="1106.0126953125"/>
			<point x="1463.4833984375" y="1015.6937255859"/>
			<point x="1553" y="882" type="curve"/>
			<point x="1641.3654785156" y="1013.3541259766"/>
			<point x="1781.1656494141" y="1107.181640625"/>
		</contour>
		<contour>
			<point x="900" y="824" type="curve"/>
			<point x="794" y="741"/>
			<point x="724.408203125" y="596.7138671875"/>
			<point x="724.408203125" y="436" type="curve" smooth="yes"/>
			<point x="724.408203125" y="307.0368347168"/>
			<point x="784.7354736328" y="175.49609375"/>
			<point x="913.5263671875" y="175.49609375" type="curve" smooth="yes"/>
			<point x="1038.0108642578" y="175.49609375"/>
			<point x="1099.7265625" y="311.1512451172"/>
			<point x="1099.7265625" y="436" type="curve" smooth="yes"/>
			<point x="1099.7265625" y="604.6929931641"/>
			<point x="1015.7341918945" y="742.4349365234"/>
		</contour>
		<contour>
			<point x="2212" y="816" type="curve"/>
			<point x="2095" y="732"/>
			<point x="2007.6171875" y="596.958984375"/>
			<point x="2007.6171875" y="429" type="curve" smooth="yes"/>
			<point x="2007.6171875" y="306.6740722656"/>
			<point x="2067.3908691406" y="171.3681640625"/>
			<point x="2189" y="171.3681640625" type="curve" smooth="yes"/>
			<point x="2316.462890625" y="171.3681640625"/>
			<point x="2374.37890625" y="300.7608337402"/>
			<point x="2374.37890625" y="429" type="curve" smooth="yes"/>
			<point x="2374.37890625" y="584.755859375"/>
			<point x="2312" y="730"/>
		</contour>
	</outline>
	<lib>
		<dict>
			<key>org.fontforge.glyphclass</key>
			<string>baseligature</string>
		</dict>
	</lib>
</glyph>
