<?xml version="1.0" encoding="UTF-8"?>
<glyph name="c" format="2">
	<unicode hex="0063"/>
	<advance width="1128"/>
	<outline>
		<contour>
			<point x="100" y="503" type="curve" smooth="yes"/>
			<point x="100" y="780"/>
			<point x="317" y="1021"/>
			<point x="594" y="1021" type="curve" smooth="yes"/>
			<point x="798" y="1021"/>
			<point x="952" y="894"/>
			<point x="1019" y="747" type="curve" smooth="yes"/>
			<point x="1023" y="739"/>
			<point x="1027" y="724"/>
			<point x="1027" y="715" type="curve" smooth="yes"/>
			<point x="1027" y="674"/>
			<point x="993" y="641"/>
			<point x="952" y="641" type="curve" smooth="yes"/>
			<point x="925" y="641"/>
			<point x="895" y="660"/>
			<point x="884" y="685" type="curve" smooth="yes"/>
			<point x="838" y="785"/>
			<point x="733" y="872"/>
			<point x="594" y="872" type="curve" smooth="yes"/>
			<point x="400" y="872"/>
			<point x="249" y="698"/>
			<point x="249" y="502" type="curve" smooth="yes"/>
			<point x="249" y="306"/>
			<point x="399" y="132"/>
			<point x="594" y="132" type="curve" smooth="yes"/>
			<point x="733" y="132"/>
			<point x="839" y="218"/>
			<point x="885" y="318" type="curve" smooth="yes"/>
			<point x="896" y="343"/>
			<point x="926" y="363"/>
			<point x="953" y="363" type="curve" smooth="yes"/>
			<point x="994" y="363"/>
			<point x="1028" y="329"/>
			<point x="1028" y="288" type="curve" smooth="yes"/>
			<point x="1028" y="279"/>
			<point x="1025" y="265"/>
			<point x="1021" y="257" type="curve" smooth="yes"/>
			<point x="954" y="110"/>
			<point x="798" y="-17"/>
			<point x="594" y="-17" type="curve" smooth="yes"/>
			<point x="315" y="-17"/>
			<point x="100" y="225"/>
		</contour>
	</outline>
	<lib>
		<dict>
			<key>org.fontforge.glyphclass</key>
			<string>baseglyph</string>
		</dict>
	</lib>
</glyph>
