<?xml version="1.0" encoding="UTF-8"?>
<glyph name="nht1u1" format="2">
	<advance width="2639"/>
	<outline>
		<component base="u_sign_drop" xOffset="1891" yOffset="102"/>
		<component base="nht1" yOffset="-2"/>
	</outline>
	<lib>
		<dict>
			<key>org.fontforge.glyphclass</key>
			<string>baseligature</string>
		</dict>
	</lib>
</glyph>
