<?xml version="1.0" encoding="UTF-8"?>
<glyph name="s1th2r1" format="2">
	<advance width="3588"/>
	<outline>
		<component base="vocalic_r_sign_drop" xOffset="2417" yOffset="324"/>
		<component base="s1th2"/>
	</outline>
	<lib>
		<dict>
			<key>org.fontforge.glyphclass</key>
			<string>baseligature</string>
		</dict>
	</lib>
</glyph>
