<?xml version="1.0" encoding="UTF-8"?>
<glyph name="verticalbarvirama" format="2">
	<unicode hex="0D3B"/>
	<outline>
		<contour>
			<point x="178" y="1682" type="curve" smooth="yes"/>
			<point x="217" y="1682"/>
			<point x="258" y="1651"/>
			<point x="258" y="1612" type="curve"/>
			<point x="232" y="1170" type="line"/>
			<point x="232" y="1131"/>
			<point x="217" y="1100"/>
			<point x="178" y="1100" type="curve" smooth="yes"/>
			<point x="139" y="1100"/>
			<point x="125.2901588561" y="1131.0672994463"/>
			<point x="123" y="1170" type="curve" smooth="yes"/>
			<point x="97" y="1612" type="line" smooth="yes"/>
			<point x="94.7685631659" y="1649.9344261805"/>
			<point x="139" y="1682"/>
		</contour>
	</outline>
</glyph>
